﻿[
  {
    "spath": {
"start": {
"identity": 180,
"labels": [
          "town"
        ],
"properties": {
"name": "Darjeeling"
        }
      },
"end": {
"identity": 182,
"labels": [
          "peak"
        ],
"properties": {
"name": "Sandakphu",
"altitude": "12400 ft"
        }
      },
"segments": [
        {
          "start": {
"identity": 180,
"labels": [
              "town"
            ],
"properties": {
"name": "Darjeeling"
            }
          },
          "relationship": {
"identity": 261,
"start": 180,
"end": 179,
"type": "road",
"properties": {
"name": "Darjeeling-Rimbik",
"winter": "true",
"distance": 15,
"summer": "true"
            }
          },
          "end": {
"identity": 179,
"labels": [
              "town"
            ],
"properties": {
"name": "Rimbik"
            }
          }
        },
        {
          "start": {
"identity": 179,
"labels": [
              "town"
            ],
"properties": {
"name": "Rimbik"
            }
          },
          "relationship": {
"identity": 263,
"start": 179,
"end": 181,
"type": "trek",
"properties": {
"name": "Rimbik-BhikeBhanja",
"winter": "true",
"distance": 18,
"summer": "true"
            }
          },
          "end": {
"identity": 181,
"labels": [
              "village"
            ],
"properties": {
"name": "BhikeBhanja"
            }
          }
        },
        {
          "start": {
"identity": 181,
"labels": [
              "village"
            ],
"properties": {
"name": "BhikeBhanja"
            }
          },
          "relationship": {
"identity": 264,
"start": 181,
"end": 182,
"type": "trek",
"properties": {
"name": "BhikeBhanja-Sandakphu",
"winter": "true",
"distance": 4,
"summer": "true"
            }
          },
          "end": {
"identity": 182,
"labels": [
              "peak"
            ],
"properties": {
"name": "Sandakphu",
"altitude": "12400 ft"
            }
          }
        }
      ],
"length": 3.0
    }
  }
]