﻿[
  {
    "actor.name": "Emil Eifrem",
    "count(connect.roles)": 1
  },
  {
    "actor.name": "Hugo Weaving",
    "count(connect.roles)": 5
  },
  {
    "actor.name": "Laurence Fishburne",
    "count(connect.roles)": 3
  },
  {
    "actor.name": "Carrie-Anne Moss",
    "count(connect.roles)": 3
  },
  {
    "actor.name": "Keanu Reeves",
    "count(connect.roles)": 7
  },
  {
    "actor.name": "Al Pacino",
    "count(connect.roles)": 1
  },
  {
    "actor.name": "Charlize Theron",
    "count(connect.roles)": 2
  },
  {
    "actor.name": "James Marshall",
    "count(connect.roles)": 1
  },
  {
    "actor.name": "Kevin Pollak",
    "count(connect.roles)": 1
  },
  {
    "actor.name": "J.T. Walsh",
    "count(connect.roles)": 2
  },
  {
    "actor.name": "Aaron Sorkin",
    "count(connect.roles)": 1
  },
  {
    "actor.name": "Cuba Gooding Jr.",
    "count(connect.roles)": 4
  },
  {
    "actor.name": "Christopher Guest",
    "count(connect.roles)": 1
  },
  {
    "actor.name": "Noah Wyle",
    "count(connect.roles)": 1
  },
  {
    "actor.name": "Kiefer Sutherland",
    "count(connect.roles)": 2
  },
  {
    "actor.name": "Kevin Bacon",
    "count(connect.roles)": 3
  },
  {
    "actor.name": "Demi Moore",
    "count(connect.roles)": 1
  },
  {
    "actor.name": "Jack Nicholson",
    "count(connect.roles)": 5
  },
  {
    "actor.name": "Tom Cruise",
    "count(connect.roles)": 3
  },
  {
    "actor.name": "Val Kilmer",
    "count(connect.roles)": 1
  },
  {
    "actor.name": "Meg Ryan",
    "count(connect.roles)": 5
  },
  {
    "actor.name": "Tom Skerritt",
    "count(connect.roles)": 1
  },
  {
    "actor.name": "Kelly McGillis",
    "count(connect.roles)": 1
  },
  {
    "actor.name": "Anthony Edwards",
    "count(connect.roles)": 1
  },
  {
    "actor.name": "Jerry O'Connell",
    "count(connect.roles)": 2
  },
  {
    "actor.name": "Bonnie Hunt",
    "count(connect.roles)": 2
  },
  {
    "actor.name": "Jay Mohr",
    "count(connect.roles)": 1
  },
  {
    "actor.name": "Jonathan Lipnicki",
    "count(connect.roles)": 1
  },
  {
    "actor.name": "Renee Zellweger",
    "count(connect.roles)": 1
  },
  {
    "actor.name": "Kelly Preston",
    "count(connect.roles)": 1
  },
  {
    "actor.name": "Regina King",
    "count(connect.roles)": 1
  },
  {
    "actor.name": "River Phoenix",
    "count(connect.roles)": 1
  },
  {
    "actor.name": "Marshall Bell",
    "count(connect.roles)": 2
  },
  {
    "actor.name": "Wil Wheaton",
    "count(connect.roles)": 1
  },
  {
    "actor.name": "John Cusack",
    "count(connect.roles)": 1
  },
  {
    "actor.name": "Corey Feldman",
    "count(connect.roles)": 1
  },
  {
    "actor.name": "Helen Hunt",
    "count(connect.roles)": 3
  },
  {
    "actor.name": "Greg Kinnear",
    "count(connect.roles)": 2
  },
  {
    "actor.name": "Robin Williams",
    "count(connect.roles)": 3
  },
  {
    "actor.name": "Max von Sydow",
    "count(connect.roles)": 2
  },
  {
    "actor.name": "Werner Herzog",
    "count(connect.roles)": 1
  },
  {
    "actor.name": "Annabella Sciorra",
    "count(connect.roles)": 1
  },
  {
    "actor.name": "Ethan Hawke",
    "count(connect.roles)": 1
  },
  {
    "actor.name": "Rick Yune",
    "count(connect.roles)": 2
  },
  {
    "actor.name": "James Cromwell",
    "count(connect.roles)": 2
  },
  {
    "actor.name": "Tom Hanks",
    "count(connect.roles)": 12
  },
  {
    "actor.name": "Parker Posey",
    "count(connect.roles)": 1
  },
  {
    "actor.name": "Steve Zahn",
    "count(connect.roles)": 2
  },
  {
    "actor.name": "Dave Chappelle",
    "count(connect.roles)": 1
  },
  {
    "actor.name": "Victor Garber",
    "count(connect.roles)": 1
  },
  {
    "actor.name": "Bill Pullman",
    "count(connect.roles)": 1
  },
  {
    "actor.name": "Rita Wilson",
    "count(connect.roles)": 1
  },
  {
    "actor.name": "Rosie O'Donnell",
    "count(connect.roles)": 2
  },
  {
    "actor.name": "Nathan Lane",
    "count(connect.roles)": 2
  },
  {
    "actor.name": "Carrie Fisher",
    "count(connect.roles)": 1
  },
  {
    "actor.name": "Billy Crystal",
    "count(connect.roles)": 1
  },
  {
    "actor.name": "Bruno Kirby",
    "count(connect.roles)": 1
  },
  {
    "actor.name": "Liv Tyler",
    "count(connect.roles)": 1
  },
  {
    "actor.name": "Brooke Langton",
    "count(connect.roles)": 1
  },
  {
    "actor.name": "Orlando Jones",
    "count(connect.roles)": 1
  },
  {
    "actor.name": "Gene Hackman",
    "count(connect.roles)": 3
  },
  {
    "actor.name": "Zach Grenier",
    "count(connect.roles)": 2
  },
  {
    "actor.name": "Christian Bale",
    "count(connect.roles)": 1
  },
  {
    "actor.name": "Clint Eastwood",
    "count(connect.roles)": 1
  },
  {
    "actor.name": "Richard Harris",
    "count(connect.roles)": 1
  },
  {
    "actor.name": "Ice-T",
    "count(connect.roles)": 1
  },
  {
    "actor.name": "Dina Meyer",
    "count(connect.roles)": 1
  },
  {
    "actor.name": "Takeshi Kitano",
    "count(connect.roles)": 1
  },
  {
    "actor.name": "Jim Broadbent",
    "count(connect.roles)": 1
  },
  {
    "actor.name": "Halle Berry",
    "count(connect.roles)": 1
  },
  {
    "actor.name": "Ian McKellen",
    "count(connect.roles)": 1
  },
  {
    "actor.name": "Audrey Tautou",
    "count(connect.roles)": 1
  },
  {
    "actor.name": "Paul Bettany",
    "count(connect.roles)": 1
  },
  {
    "actor.name": "John Hurt",
    "count(connect.roles)": 1
  },
  {
    "actor.name": "Stephen Rea",
    "count(connect.roles)": 1
  },
  {
    "actor.name": "Natalie Portman",
    "count(connect.roles)": 1
  },
  {
    "actor.name": "Ben Miles",
    "count(connect.roles)": 3
  },
  {
    "actor.name": "Emile Hirsch",
    "count(connect.roles)": 1
  },
  {
    "actor.name": "Rain",
    "count(connect.roles)": 2
  },
  {
    "actor.name": "Christina Ricci",
    "count(connect.roles)": 1
  },
  {
    "actor.name": "Susan Sarandon",
    "count(connect.roles)": 1
  },
  {
    "actor.name": "John Goodman",
    "count(connect.roles)": 1
  },
  {
    "actor.name": "Matthew Fox",
    "count(connect.roles)": 1
  },
  {
    "actor.name": "Naomie Harris",
    "count(connect.roles)": 1
  },
  {
    "actor.name": "Sam Rockwell",
    "count(connect.roles)": 2
  },
  {
    "actor.name": "Patricia Clarkson",
    "count(connect.roles)": 1
  },
  {
    "actor.name": "Michael Clarke Duncan",
    "count(connect.roles)": 1
  },
  {
    "actor.name": "David Morse",
    "count(connect.roles)": 1
  },
  {
    "actor.name": "Gary Sinise",
    "count(connect.roles)": 2
  },
  {
    "actor.name": "Michael Sheen",
    "count(connect.roles)": 1
  },
  {
    "actor.name": "Frank Langella",
    "count(connect.roles)": 1
  },
  {
    "actor.name": "Oliver Platt",
    "count(connect.roles)": 2
  },
  {
    "actor.name": "John C. Reilly",
    "count(connect.roles)": 1
  },
  {
    "actor.name": "Danny DeVito",
    "count(connect.roles)": 2
  },
  {
    "actor.name": "Ed Harris",
    "count(connect.roles)": 1
  },
  {
    "actor.name": "Bill Paxton",
    "count(connect.roles)": 3
  },
  {
    "actor.name": "Philip Seymour Hoffman",
    "count(connect.roles)": 2
  },
  {
    "actor.name": "Diane Keaton",
    "count(connect.roles)": 1
  },
  {
    "actor.name": "Julia Roberts",
    "count(connect.roles)": 1
  },
  {
    "actor.name": "Madonna",
    "count(connect.roles)": 1
  },
  {
    "actor.name": "Geena Davis",
    "count(connect.roles)": 1
  },
  {
    "actor.name": "Lori Petty",
    "count(connect.roles)": 1
  }
]